<?xml version="1.0" encoding="UTF-8" standalone="no"?>
<!-- Created with Inkscape (http://www.inkscape.org/) -->

<svg
   xmlns:dc="http://purl.org/dc/elements/1.1/"
   xmlns:cc="http://creativecommons.org/ns#"
   xmlns:rdf="http://www.w3.org/1999/02/22-rdf-syntax-ns#"
   xmlns:svg="http://www.w3.org/2000/svg"
   xmlns="http://www.w3.org/2000/svg"
   xmlns:sodipodi="http://sodipodi.sourceforge.net/DTD/sodipodi-0.dtd"
   xmlns:inkscape="http://www.inkscape.org/namespaces/inkscape"
   width="300mm"
   height="300mm"
   viewBox="0 0 300 300"
   version="1.1"
   id="svg878"
   inkscape:version="0.92.3 (2405546, 2018-03-11)"
   sodipodi:docname="deduplicated_for_laser.svg">
  <defs
     id="defs872">
    <marker
       style="overflow:visible"
       refY="0"
       refX="0"
       orient="auto"
       id="DistanceX">
      <path
         id="path1425"
         style="stroke:#000000;stroke-width:0.5"
         d="M 3,-3 -3,3 M 0,-5 V 5"
         inkscape:connector-curvature="0" />
    </marker>
    <pattern
       y="0"
       x="0"
       width="8"
       patternUnits="userSpaceOnUse"
       id="Hatch"
       height="8">
      <path
         id="path1428"
         stroke-width="0.25"
         stroke="#000000"
         linecap="square"
         d="M8 4 l-4,4" />
      <path
         id="path1430"
         stroke-width="0.25"
         stroke="#000000"
         linecap="square"
         d="M6 2 l-4,4" />
      <path
         id="path1432"
         stroke-width="0.25"
         stroke="#000000"
         linecap="square"
         d="M4 0 l-4,4" />
    </pattern>
    <symbol
       id="*MODEL_SPACE" />
    <symbol
       id="*PAPER_SPACE" />
    <marker
       style="overflow:visible"
       refY="0.0"
       refX="0.0"
       orient="auto"
       id="DistanceX-3">
      <path
         id="path1467"
         style="stroke:#000000; stroke-width:0.5"
         d="M 3,-3 L -3,3 M 0,-5 L  0,5" />
    </marker>
    <pattern
       y="0"
       x="0"
       width="8"
       patternUnits="userSpaceOnUse"
       id="Hatch-4"
       height="8">
      <path
         id="path1470"
         stroke-width="0.25"
         stroke="#000000"
         linecap="square"
         d="M8 4 l-4,4" />
      <path
         id="path1472"
         stroke-width="0.25"
         stroke="#000000"
         linecap="square"
         d="M6 2 l-4,4" />
      <path
         id="path1474"
         stroke-width="0.25"
         stroke="#000000"
         linecap="square"
         d="M4 0 l-4,4" />
    </pattern>
    <symbol
       id="*MODEL_SPACE-0" />
    <symbol
       id="*PAPER_SPACE-7" />
    <marker
       style="overflow:visible"
       refY="0.0"
       refX="0.0"
       orient="auto"
       id="DistanceX-6">
      <path
         id="path1515"
         style="stroke:#000000; stroke-width:0.5"
         d="M 3,-3 L -3,3 M 0,-5 L  0,5" />
    </marker>
    <pattern
       y="0"
       x="0"
       width="8"
       patternUnits="userSpaceOnUse"
       id="Hatch-3"
       height="8">
      <path
         id="path1518"
         stroke-width="0.25"
         stroke="#000000"
         linecap="square"
         d="M8 4 l-4,4" />
      <path
         id="path1520"
         stroke-width="0.25"
         stroke="#000000"
         linecap="square"
         d="M6 2 l-4,4" />
      <path
         id="path1522"
         stroke-width="0.25"
         stroke="#000000"
         linecap="square"
         d="M4 0 l-4,4" />
    </pattern>
    <symbol
       id="*MODEL_SPACE-3" />
    <symbol
       id="*PAPER_SPACE-1" />
  </defs>
  <sodipodi:namedview
     id="base"
     pagecolor="#ffffff"
     bordercolor="#666666"
     borderopacity="1.0"
     inkscape:pageopacity="0.0"
     inkscape:pageshadow="2"
     inkscape:zoom="2.8"
     inkscape:cx="-712.85514"
     inkscape:cy="190.59715"
     inkscape:document-units="mm"
     inkscape:current-layer="layer1"
     showgrid="false"
     inkscape:window-width="1920"
     inkscape:window-height="1027"
     inkscape:window-x="1912"
     inkscape:window-y="-8"
     inkscape:window-maximized="1" />
  <metadata
     id="metadata875">
    <rdf:RDF>
      <cc:Work
         rdf:about="">
        <dc:format>image/svg+xml</dc:format>
        <dc:type
           rdf:resource="http://purl.org/dc/dcmitype/StillImage" />
        <dc:title></dc:title>
      </cc:Work>
    </rdf:RDF>
  </metadata>
  <g
     inkscape:label="Layer 1"
     inkscape:groupmode="layer"
     id="layer1"
     transform="translate(0,3)">
    <path
       inkscape:connector-curvature="0"
       d="M 44.405962,34.684519 V 22.184518 h 16.399999 v 12.500001 h 0.3 V 22.184518 h 16.4 v 12.500001 h 0.3 V 22.184518 H 94.20596 v 12.500001 h 0.300001 V 22.184518 h 16.399999 v 12.500001 h 0.3 V 22.184518 h 16.4 v 12.500001 h 0.3 V 22.184518 h 16.4 v 12.500001 h 0.3 V 22.184518 h 16.4 v 12.500001 h 0.3 V 22.184518 h 16.4 v 12.500001 h 0.3 V 22.184518 h 16.4 v 12.500001 h 0.3 V 22.184518 h 16.4 v 12.500001 h 0.3 V 22.184518 h 3.34 l 23,19.999986 v 5.000016 h -219.98 V 42.184504 L 40.765962,22.184518 h 3.339999 v 12.500001 z"
       style="fill:none;stroke:#000000;stroke-width:0.26458332"
       id="path1529" />
    <path
       sodipodi:nodetypes="cccccccccccccccccccccccccccccccccccccccccccccccccc"
       inkscape:connector-curvature="0"
       d="m 237.74596,47.184517 v 5.000016 l -23,19.999986 h -3.34 V 59.684518 h -0.3 v 12.500001 h -16.4 V 59.684518 h -0.3 v 12.500001 h -16.4 V 59.684518 h -0.3 v 12.500001 h -16.4 V 59.684518 h -0.3 v 12.500001 h -16.4 V 59.684518 h -0.3 v 12.500001 h -16.4 V 59.684518 h -0.3 v 12.500001 h -16.4 V 59.684518 h -0.3 V 72.184519 H 94.505961 V 59.684518 h -0.3 V 72.184519 H 77.805962 V 59.684518 H 77.505961 V 72.184519 H 61.105962 V 59.684518 H 60.805961 V 72.184519 H 44.405962 V 59.684518 h -0.3 v 12.500001 h -3.34 L 17.765961,52.184533 v -5.000016"
       style="fill:none;stroke:#000000;stroke-width:0.26458332"
       id="path1529-5" />
    <path
       id="path1529-9"
       style="fill:none;stroke:#000000;stroke-width:0.26458332"
       d="m 60.805957,72.184522 v 12.500002 h 0.3 V 72.184522 m 16.4,0 v 12.500002 h 0.3 V 72.184522 m 16.399999,0 v 12.500002 h 0.300001 V 72.184522 m 16.400003,0 v 12.500002 h 0.3 V 72.184522 m 16.4,0 v 12.500002 h 0.3 V 72.184522 m 16.4,0 v 12.500002 h 0.3 V 72.184522 m 16.4,0 v 12.500002 h 0.3 V 72.184522 m 16.39999,0 v 12.500002 h 0.30001 V 72.184522 m 16.39999,0 v 12.500002 h 0.30001 V 72.184522 m 16.39999,0 v 12.500002 h 0.3 V 72.184522 m 3.34,0 23.00001,19.999987 v 5.000016 H 17.765956 V 92.184509 L 40.765958,72.184522 h 3.339999 v 12.500002 h 0.300001 V 72.184522"
       inkscape:connector-curvature="0"
       sodipodi:nodetypes="cccccccccccccccccccccccccccccccccccccccccccccccccc" />
    <path
       id="path1529-9-1"
       style="fill:none;stroke:#000000;stroke-width:0.26458332"
       d="m 60.805954,122.1845 v 12.5 h 0.300001 v -12.5 m 16.399999,0 v 12.5 h 0.3 v -12.5 m 16.4,0 v 12.5 h 0.3 v -12.5 m 16.399996,0 v 12.5 h 0.3 v -12.5 m 16.40001,0 v 12.5 h 0.3 v -12.5 m 16.39999,0 v 12.5 h 0.30001 v -12.5 m 16.4,0 v 12.5 h 0.3 v -12.5 m 16.39999,0 v 12.5 h 0.30001 v -12.5 m 16.39999,0 v 12.5 h 0.30001 v -12.5 m 16.39999,0 v 12.5 h 0.3 v -12.5 m 3.34,0 23.00001,19.99999 v 5.00001 H 17.765954 v -5.00001 L 40.765955,122.1845 h 3.339999 v 12.5 h 0.300001 v -12.5"
       inkscape:connector-curvature="0"
       sodipodi:nodetypes="cccccccccccccccccccccccccccccccccccccccccccccccccc" />
    <path
       id="path1529-5-6-1"
       style="fill:none;stroke:#000000;stroke-width:0.26458332"
       d="m 237.74595,147.18448 v 5.00001 l -23,19.99999 h -3.34 v -12.5 h -0.3 v 12.5 h -16.4 v -12.5 h -0.3 v 12.5 h -16.4 v -12.5 h -0.3 v 12.5 h -16.4 v -12.5 h -0.3 v 12.5 h -16.4 v -12.5 h -0.3 v 12.5 h -16.4 v -12.5 h -0.3 v 12.5 h -16.4 v -12.5 h -0.3 v 12.5 H 94.505951 v -12.5 h -0.3 v 12.5 H 77.805952 v -12.5 h -0.300001 v 12.5 H 61.105949 v -12.5 h -0.3 v 12.5 H 44.40595 v -12.5 h -0.300001 v 12.5 H 40.76595 L 17.765948,152.18449 v -5.00001"
       inkscape:connector-curvature="0"
       sodipodi:nodetypes="cccccccccccccccccccccccccccccccccccccccccccccccccc" />
    <path
       id="path1529-9-0"
       style="fill:none;stroke:#000000;stroke-width:0.26458332"
       d="m 60.805949,172.18448 v 12.5 h 0.3 v -12.5 m 16.4,0 v 12.5 h 0.3 v -12.5 m 16.399999,0 v 12.5 h 0.300001 v -12.5 m 16.400001,0 v 12.5 h 0.3 v -12.5 m 16.4,0 v 12.5 h 0.3 v -12.5 m 16.4,0 v 12.5 h 0.3 v -12.5 m 16.4,0 v 12.5 h 0.3 v -12.5 m 16.4,0 v 12.5 h 0.3 v -12.5 m 16.4,0 v 12.5 h 0.3 v -12.5 m 16.4,0 v 12.5 h 0.3 v -12.5 m 3.34,0 23,19.99999 v 5.00001 H 17.765948 v -5.00001 L 40.76595,172.18448 h 3.339999 v 12.5 h 0.300001 v -12.5"
       inkscape:connector-curvature="0"
       sodipodi:nodetypes="cccccccccccccccccccccccccccccccccccccccccccccccccc" />
    <path
       id="path1529-5-6-3"
       style="fill:none;stroke:#000000;stroke-width:0.26458332"
       d="m 237.74595,197.18446 v 5.00001 l -23,19.99999 h -3.34 v -12.5 h -0.3 v 12.5 h -16.4 v -12.5 h -0.3 v 12.5 h -16.4 v -12.5 h -0.3 v 12.5 h -16.4 v -12.5 h -0.3 v 12.5 h -16.4 v -12.5 h -0.3 v 12.5 h -16.4 v -12.5 h -0.3 v 12.5 h -16.4 v -12.5 h -0.3 v 12.5 H 94.505946 v -12.5 h -0.3 v 12.5 h -16.4 v -12.5 h -0.3 v 12.5 H 61.105944 v -12.5 h -0.3 v 12.5 h -16.4 v -12.5 h -0.3 v 12.5 h -3.34 L 17.765943,202.18447 v -5.00001"
       inkscape:connector-curvature="0"
       sodipodi:nodetypes="cccccccccccccccccccccccccccccccccccccccccccccccccc" />
    <path
       sodipodi:nodetypes="cccccccccccccccccccccccccccccccccccccccccccccccccc"
       inkscape:connector-curvature="0"
       d="m 237.74596,97.184495 v 5.000025 l -23,19.99998 h -3.34 v -12.5 h -0.3 v 12.5 h -16.4 v -12.5 h -0.3 v 12.5 h -16.4 v -12.5 h -0.3 v 12.5 h -16.4 v -12.5 h -0.3 v 12.5 h -16.4 v -12.5 h -0.3 v 12.5 h -16.4 v -12.5 h -0.3 v 12.5 h -16.4 v -12.5 h -0.3 v 12.5 H 94.505961 v -12.5 h -0.3 v 12.5 H 77.805962 v -12.5 h -0.300001 v 12.5 H 61.105959 v -12.5 h -0.3 v 12.5 h -16.4 v -12.5 h -0.3 v 12.5 H 40.76596 L 17.765958,102.18452 v -5.000025"
       style="fill:none;stroke:#000000;stroke-width:0.26458332"
       id="path1529-5-6" />
    <path
       inkscape:connector-curvature="0"
       d="m -213.55119,33.751258 a 10,10 0 0 1 -12,0 h -6.99 l -23,19.999986 v 5.000016 h 26.59 V 46.251259 h 0.3 V 58.75126 h 18.2 V 46.251259 h 0.3 V 58.75126 h 18.2 V 46.251259 h 0.3 V 58.75126 h 18.2 V 46.251259 h 0.3 V 58.75126 h 18.2 V 46.251259 h 0.3 V 58.75126 h 18.2 V 46.251259 h 0.3 V 58.75126 h 18.2 V 46.251259 h 0.3 V 58.75126 h 18.199999 V 46.251259 h 0.300001 V 58.75126 h 18.199999 V 46.251259 h 0.300001 V 58.75126 h 18.199999 V 46.251259 h 0.3 V 58.75126 h 18.2 V 46.251259 h 0.3 V 58.75126 h 8.090001 V 33.751258 h -11.490002 a 10,10 0 0 1 -12,0 h -6.499998 a 10,10 0 0 1 -12.000002,0 h -6.5 a 10,10 0 0 1 -12,0 h -6.499998 a 10,10 0 0 1 -12,0 h -6.5 a 10,10 0 0 1 -12,0 h -6.5 a 10,10 0 0 1 -12,0 h -6.5 a 10,10 0 0 1 -12,0 h -6.5 a 10,10 0 0 1 -12,0 h -6.5 a 10,10 0 0 1 -12,0 z"
       style="fill:none;stroke:#000000;stroke-width:0.26458332"
       id="path1439" />
    <path
       sodipodi:nodetypes="ccccccccccccccccccccccccccccccccccccccccccccccccccccccccccccccccccccc"
       inkscape:connector-curvature="0"
       d="m -255.54119,58.75126 v 25.000002 h 11.49 c 3.55556,-2.666656 8.44445,-2.666656 12,0 h 6.5 c 3.55556,-2.666656 8.44445,-2.666656 12,0 h 6.5 c 3.55556,-2.666656 8.44445,-2.666656 12,0 h 6.5 c 3.55556,-2.666656 8.44445,-2.666656 12,0 h 6.5 c 3.55556,-2.666656 8.44444,-2.666656 12,0 h 6.5 c 3.55556,-2.666656 8.44444,-2.666656 12,0 h 6.5 c 3.55556,-2.666656 8.44444,-2.666656 12,0 h 6.5 c 3.55555,-2.666656 8.44444,-2.666656 12,0 h 6.499998 c 3.555556,-2.666656 8.444444,-2.666656 12,0 h 6.5 c 3.555556,-2.666656 8.444447,-2.666656 12.000002,0 h 6.989998 L -35.56119,63.751276 V 58.75126 m -26.590001,0 v 12.500001 h -0.3 V 58.75126 m -18.199999,0 v 12.500001 h -0.300001 V 58.75126 m -18.199999,0 v 12.500001 h -0.300001 V 58.75126 m -18.199999,0 v 12.500001 h -0.3 V 58.75126 m -18.2,0 v 12.500001 h -0.3 V 58.75126 m -18.2,0 v 12.500001 h -0.3 V 58.75126 m -18.2,0 v 12.500001 h -0.3 V 58.75126 m -18.2,0 v 12.500001 h -0.3 V 58.75126 m -18.2,0 v 12.500001 h -0.3 V 58.75126 m -18.2,0 v 12.500001 h -0.3 V 58.75126 m -18.2,0 v 12.500001 h -0.3 V 58.75126"
       style="fill:none;stroke:#000000;stroke-width:0.26458332"
       id="path1439-4" />
    <path
       id="path1529-9-0-7"
       style="fill:none;stroke:#000000;stroke-width:0.26458332"
       d="m 60.805943,222.18446 v 12.5 h 0.3 v -12.5 m 16.4,0 v 12.5 h 0.3 v -12.5 m 16.4,0 v 12.5 h 0.3 v -12.5 m 16.400007,0 v 12.5 h 0.3 v -12.5 m 16.4,0 v 12.5 h 0.3 v -12.5 m 16.4,0 v 12.5 h 0.3 v -12.5 m 16.4,0 v 12.5 h 0.3 v -12.5 m 16.4,0 v 12.5 h 0.3 v -12.5 m 16.4,0 v 12.5 h 0.3 v -12.5 m 16.4,0 v 12.5 h 0.3 v -12.5 m 3.34,0 23,19.99999 v 5.00001 H 17.765941 v -5.00001 l 23.000003,-19.99999 h 3.339999 v 12.5 h 0.3 v -12.5"
       inkscape:connector-curvature="0"
       sodipodi:nodetypes="cccccccccccccccccccccccccccccccccccccccccccccccccc" />
    <path
       id="path1529-5-6-3-9"
       style="fill:none;stroke:#000000;stroke-width:0.26458332"
       d="m 237.74595,247.18444 v 5.00001 l -23,19.99999 h -3.34 v -12.5 h -0.3 v 12.5 h -16.4 v -12.5 h -0.3 v 12.5 h -16.4 v -12.5 h -0.3 v 12.5 h -16.4 v -12.5 h -0.3 v 12.5 h -16.4 v -12.5 h -0.3 v 12.5 h -16.4 v -12.5 h -0.3 v 12.5 h -16.4 v -12.5 h -0.3 v 12.5 H 94.505941 v -12.5 H 94.20594 v 12.5 H 77.805941 v -12.5 H 77.50594 v 12.5 H 61.105938 v -12.5 h -0.3 v 12.5 h -16.4 v -12.5 h -0.3 v 12.5 h -3.34 L 17.765936,252.18445 v -5.00001"
       inkscape:connector-curvature="0"
       sodipodi:nodetypes="cccccccccccccccccccccccccccccccccccccccccccccccccc" />
    <path
       inkscape:connector-curvature="0"
       d="m -231.85668,83.751262 h -0.68451 l -23,19.999988 v 5.00002 h 26.59 V 96.251265 h 0.3 v 12.500005 h 18.2 V 96.251265 h 0.3 v 12.500005 h 18.2 V 96.251265 h 0.3 v 12.500005 h 18.2 V 96.251265 h 0.3 v 12.500005 h 18.19999 V 96.251265 h 0.3 v 12.500005 h 18.2 V 96.251265 h 0.3 v 12.500005 h 18.2 V 96.251265 h 0.3 v 12.500005 h 18.199997 V 96.251265 h 0.3 v 12.500005 h 18.2 V 96.251265 h 0.3 v 12.500005 h 18.2 V 96.251265 h 0.3 v 12.500005 h 18.2 V 96.251265 h 0.3 v 12.500005 h 8.09 V 83.751262 h -11.49 c -3.555556,2.666667 -8.444444,2.666667 -12,0 m -6.5,0 c -3.555556,2.666667 -8.444444,2.666667 -12,0 m -6.5,0 c -3.555556,2.666667 -8.444444,2.666667 -12,0 m -6.499997,0 c -3.55556,2.666667 -8.44444,2.666667 -12,0 m -6.5,0 c -3.55556,2.666667 -8.44444,2.666667 -12,0 m -6.5,0 c -3.55556,2.666667 -8.44444,2.666667 -12,0 m -6.49999,0 c -3.55556,2.666667 -8.44444,2.666667 -12,0 m -6.5,0 c -3.55556,2.666667 -8.44444,2.666667 -12,0 m -6.5,0 c -3.55556,2.666667 -8.44444,2.666667 -12,0 m -6.5,0 c -3.55556,2.666667 -8.44444,2.666667 -12,0"
       style="fill:none;stroke:#000000;stroke-width:0.26458332"
       id="path1439-8"
       sodipodi:nodetypes="cccccccccccccccccccccccccccccccccccccccccccccccccccccccccccccccccccccc" />
    <path
       sodipodi:nodetypes="ccccccccccccccccccccccccccccccccccccccccccccccccccccccccccccccccccccc"
       inkscape:connector-curvature="0"
       d="m -255.54119,108.75127 v 25 h 11.49 c 3.55556,-2.66665 8.44445,-2.66665 12,0 h 6.5 c 3.55556,-2.66665 8.44445,-2.66665 12,0 h 6.5 c 3.55556,-2.66665 8.44445,-2.66665 12,0 h 6.5 c 3.55556,-2.66665 8.44445,-2.66665 12,0 h 6.5 c 3.55556,-2.66665 8.44444,-2.66665 12,0 h 6.49999 c 3.55556,-2.66665 8.44444,-2.66665 12,0 h 6.5 c 3.55556,-2.66665 8.44444,-2.66665 12,0 h 6.5 c 3.55555,-2.66665 8.44444,-2.66665 12,0 h 6.499997 c 3.55556,-2.66665 8.44445,-2.66665 12,0 h 6.5 c 3.55556,-2.66665 8.44445,-2.66665 12,0 h 6.99 l 23,-19.99998 v -5.00002 m -26.59,0 v 12.5 h -0.3 v -12.5 m -18.2,0 v 12.5 h -0.3 v -12.5 m -18.2,0 v 12.5 h -0.3 v -12.5 m -18.199997,0 v 12.5 h -0.3 v -12.5 m -18.2,0 v 12.5 h -0.3 v -12.5 m -18.2,0 v 12.5 h -0.3 v -12.5 m -18.19999,0 v 12.5 h -0.3 v -12.5 m -18.2,0 v 12.5 h -0.3 v -12.5 m -18.2,0 v 12.5 h -0.3 v -12.5 m -18.2,0 v 12.5 h -0.3 v -12.5 m -18.2,0 v 12.5 h -0.3 v -12.5"
       style="fill:none;stroke:#000000;stroke-width:0.26458332"
       id="path1439-4-9" />
    <path
       inkscape:connector-curvature="0"
       d="m -231.85668,133.75127 h -0.68451 l -23,19.99999 v 5.00002 h 26.59 v -12.5 h 0.3 v 12.5 h 18.2 v -12.5 h 0.3 v 12.5 h 18.2 v -12.5 h 0.3 v 12.5 h 18.2 v -12.5 h 0.3 v 12.5 h 18.19999 v -12.5 h 0.3 v 12.5 h 18.2 v -12.5 h 0.3 v 12.5 h 18.2 v -12.5 h 0.3 v 12.5 h 18.2 v -12.5 h 0.3 v 12.5 h 18.2 v -12.5 h 0.3 v 12.5 h 18.2 v -12.5 h 0.3 v 12.5 h 18.200003 v -12.5 h 0.3 v 12.5 h 8.09 V 133.75127 H -47.0512 c -3.55555,2.66667 -8.44444,2.66667 -12,0 m -6.5,0 c -3.55555,2.66667 -8.44444,2.66667 -12,0 m -6.5,0 c -3.55555,2.66667 -8.44444,2.66667 -12,0 m -6.5,0 c -3.55556,2.66667 -8.44444,2.66667 -12,0 m -6.5,0 c -3.55556,2.66667 -8.44444,2.66667 -12,0 m -6.5,0 c -3.55556,2.66667 -8.44444,2.66667 -12,0 m -6.49999,0 c -3.55556,2.66667 -8.44444,2.66667 -12,0 m -6.5,0 c -3.55556,2.66667 -8.44444,2.66667 -12,0 m -6.5,0 c -3.55556,2.66667 -8.44444,2.66667 -12,0 m -6.5,0 c -3.55556,2.66667 -8.44444,2.66667 -12,0"
       style="fill:none;stroke:#000000;stroke-width:0.26458332"
       id="path1439-8-4"
       sodipodi:nodetypes="cccccccccccccccccccccccccccccccccccccccccccccccccccccccccccccccccccccc" />
    <path
       sodipodi:nodetypes="ccccccccccccccccccccccccccccccccccccccccccccccccccccccccccccccccccccc"
       inkscape:connector-curvature="0"
       d="m -255.54119,158.75128 v 25 h 11.49 c 3.55556,-2.66665 8.44445,-2.66665 12,0 h 6.5 c 3.55556,-2.66665 8.44445,-2.66665 12,0 h 6.5 c 3.55556,-2.66665 8.44445,-2.66665 12,0 h 6.5 c 3.55556,-2.66665 8.44445,-2.66665 12,0 h 6.5 c 3.55556,-2.66665 8.44444,-2.66665 12,0 h 6.49999 c 3.55556,-2.66665 8.44444,-2.66665 12,0 h 6.5 c 3.55556,-2.66665 8.44444,-2.66665 12,0 h 6.5 c 3.55555,-2.66665 8.44444,-2.66665 12,0 h 6.5 c 3.55556,-2.66665 8.44445,-2.66665 12,0 h 6.5 c 3.55556,-2.66665 8.44445,-2.66665 12,0 h 6.99 l 23.000003,-19.99998 v -5.00002 m -26.590003,0 v 12.5 h -0.3 v -12.5 m -18.2,0 v 12.5 h -0.3 v -12.5 m -18.2,0 v 12.5 h -0.3 v -12.5 m -18.2,0 v 12.5 h -0.3 v -12.5 m -18.2,0 v 12.5 h -0.3 v -12.5 m -18.2,0 v 12.5 h -0.3 v -12.5 m -18.19999,0 v 12.5 h -0.3 v -12.5 m -18.2,0 v 12.5 h -0.3 v -12.5 m -18.2,0 v 12.5 h -0.3 v -12.5 m -18.2,0 v 12.5 h -0.3 v -12.5 m -18.2,0 v 12.5 h -0.3 v -12.5"
       style="fill:none;stroke:#000000;stroke-width:0.26458332"
       id="path1439-4-9-5" />
    <path
       inkscape:connector-curvature="0"
       d="m -231.85668,183.75128 h -0.68451 l -23,19.99999 v 5.00002 h 26.59 v -12.50001 h 0.3 v 12.50001 h 18.2 v -12.50001 h 0.3 v 12.50001 h 18.2 v -12.50001 h 0.3 v 12.50001 h 18.2 v -12.50001 h 0.3 v 12.50001 h 18.19999 v -12.50001 h 0.3 v 12.50001 h 18.2 v -12.50001 h 0.3 v 12.50001 h 18.2 v -12.50001 h 0.3 v 12.50001 h 18.2 v -12.50001 h 0.3 v 12.50001 h 18.2 v -12.50001 h 0.3 v 12.50001 h 18.2 v -12.50001 h 0.3 v 12.50001 h 18.2 v -12.50001 h 0.3 v 12.50001 h 8.090001 V 183.75128 H -47.0512 c -3.55555,2.66667 -8.44444,2.66667 -12,0 m -6.5,0 c -3.55555,2.66667 -8.44444,2.66667 -12,0 m -6.5,0 c -3.55555,2.66667 -8.44444,2.66667 -12,0 m -6.5,0 c -3.55556,2.66667 -8.44444,2.66667 -12,0 m -6.5,0 c -3.55556,2.66667 -8.44444,2.66667 -12,0 m -6.5,0 c -3.55556,2.66667 -8.44444,2.66667 -12,0 m -6.49998,0 c -3.55557,2.66667 -8.44445,2.66667 -12.00001,0 m -6.49999,0 c -3.55557,2.66667 -8.44445,2.66667 -12.00001,0 m -6.5,0 c -3.55556,2.66667 -8.44444,2.66667 -12,0 m -6.5,0 c -3.55556,2.66667 -8.44444,2.66667 -12,0"
       style="fill:none;stroke:#000000;stroke-width:0.26458332"
       id="path1439-8-7"
       sodipodi:nodetypes="cccccccccccccccccccccccccccccccccccccccccccccccccccccccccccccccccccccc" />
    <path
       sodipodi:nodetypes="ccccccccccccccccccccccccccccccccccccccccccccccccccccccccccccccccccccc"
       inkscape:connector-curvature="0"
       d="m -255.54119,208.75129 v 25 h 11.49 c 3.55556,-2.66665 8.44445,-2.66665 12,0 h 6.5 c 3.55556,-2.66665 8.44445,-2.66665 12,0 h 6.5 c 3.55556,-2.66665 8.44446,-2.66665 12,0 h 6.5 c 3.55556,-2.66665 8.44446,-2.66665 12.00001,0 h 6.49999 c 3.55556,-2.66665 8.44444,-2.66665 12.00001,0 h 6.49998 c 3.55556,-2.66665 8.44444,-2.66665 12,0 h 6.5 c 3.55556,-2.66665 8.44444,-2.66665 12,0 h 6.5 c 3.55555,-2.66665 8.44444,-2.66665 12,0 h 6.5 c 3.55556,-2.66665 8.44445,-2.66665 12,0 h 6.5 c 3.55556,-2.66665 8.44445,-2.66665 12,0 h 6.99 l 23.000001,-19.99998 v -5.00002 m -26.590001,0 v 12.5 h -0.3 v -12.5 m -18.2,0 v 12.5 h -0.3 v -12.5 m -18.2,0 v 12.5 h -0.3 v -12.5 m -18.2,0 v 12.5 h -0.3 v -12.5 m -18.2,0 v 12.5 h -0.3 v -12.5 m -18.2,0 v 12.5 h -0.3 v -12.5 m -18.19999,0 v 12.5 h -0.3 v -12.5 m -18.2,0 v 12.5 h -0.3 v -12.5 m -18.2,0 v 12.5 h -0.3 v -12.5 m -18.2,0 v 12.5 h -0.3 v -12.5 m -18.2,0 v 12.5 h -0.3 v -12.5"
       style="fill:none;stroke:#000000;stroke-width:0.26458332"
       id="path1439-4-9-56" />
    <path
       inkscape:connector-curvature="0"
       d="m -231.85668,233.75129 h -0.68451 l -23,19.99999 v 5.00002 h 26.59 v -12.5 h 0.30001 v 12.5 h 18.19999 v -12.5 h 0.30001 v 12.5 h 18.19999 v -12.5 h 0.30001 v 12.5 h 18.19999 v -12.5 h 0.30001 v 12.5 h 18.19998 v -12.5 h 0.3 v 12.5 h 18.2 v -12.5 h 0.3 v 12.5 h 18.2 v -12.5 h 0.3 v 12.5 h 18.2 v -12.5 h 0.3 v 12.5 h 18.2 v -12.5 h 0.3 v 12.5 h 18.2 v -12.5 h 0.3 v 12.5 h 18.2 v -12.5 h 0.3 v 12.5 h 8.09 v -25.00001 h -11.49 c -3.55555,2.66667 -8.44444,2.66667 -12,0 m -6.5,0 c -3.55555,2.66667 -8.44444,2.66667 -12,0 m -6.5,0 c -3.55555,2.66667 -8.44444,2.66667 -12,0 m -6.5,0 c -3.55556,2.66667 -8.44444,2.66667 -12,0 m -6.5,0 c -3.55556,2.66667 -8.44444,2.66667 -12,0 m -6.5,0 c -3.55556,2.66667 -8.44444,2.66667 -12,0 m -6.49998,0 c -3.55556,2.66667 -8.44445,2.66667 -12.00001,0 m -6.49999,0 c -3.55556,2.66667 -8.44445,2.66667 -12.00001,0 m -6.5,0 c -3.55555,2.66667 -8.44444,2.66667 -12,0 m -6.5,0 c -3.55555,2.66667 -8.44444,2.66667 -12,0"
       style="fill:none;stroke:#000000;stroke-width:0.26458332"
       id="path1439-8-3"
       sodipodi:nodetypes="cccccccccccccccccccccccccccccccccccccccccccccccccccccccccccccccccccccc" />
    <path
       sodipodi:nodetypes="ccccccccccccccccccccccccccccccccccccccccccccccccccccccccccccccccccccc"
       inkscape:connector-curvature="0"
       d="m -255.54119,258.7513 v 25 h 11.49 c 3.55556,-2.66665 8.44445,-2.66665 12,0 h 6.5 c 3.55556,-2.66665 8.44445,-2.66665 12,0 h 6.5 c 3.55556,-2.66665 8.44446,-2.66665 12,0 h 6.5 c 3.55556,-2.66665 8.44446,-2.66665 12.00001,0 h 6.49999 c 3.55556,-2.66665 8.44445,-2.66665 12.00001,0 h 6.49998 c 3.55556,-2.66665 8.44444,-2.66665 12,0 h 6.5 c 3.55556,-2.66665 8.44444,-2.66665 12,0 h 6.5 c 3.55555,-2.66665 8.44444,-2.66665 12,0 h 6.5 c 3.55556,-2.66665 8.44445,-2.66665 12,0 h 6.5 c 3.55556,-2.66665 8.44445,-2.66665 12,0 h 6.99 l 23,-19.99998 v -5.00002 m -26.59,0 v 12.5 h -0.3 v -12.5 m -18.2,0 v 12.5 h -0.3 v -12.5 m -18.2,0 v 12.5 h -0.3 v -12.5 m -18.2,0 v 12.5 h -0.3 v -12.5 m -18.2,0 v 12.5 h -0.3 v -12.5 m -18.2,0 v 12.5 h -0.3 v -12.5 m -18.19998,0 v 12.5 h -0.30001 v -12.5 m -18.19999,0 v 12.5 h -0.30001 v -12.5 m -18.19999,0 v 12.5 h -0.30001 v -12.5 m -18.19999,0 v 12.5 h -0.30001 v -12.5 m -18.2,0 v 12.5 h -0.3 v -12.5"
       style="fill:none;stroke:#000000;stroke-width:0.26458332"
       id="path1439-4-9-2" />
  </g>
</svg>
